guerin-steven-ADA-homework2
…
k <- 10000 
n <- 100 
v <- list(length = k) 
for (i in 1:k) {
  v[[i]] <- sample(twenties, size = n, replace = TRUE)
}
head(v)

## $length
## # A tibble: 156 x 100
##    runtimeMinutes runtimeMinutes startYear runtimeMinutes startYear
##             <dbl>          <dbl>     <dbl>          <dbl>     <dbl>
##  1             76             76      1920             76      1920
##  2            167            167      1920            167      1920
##  3             82             82      1920             82      1920
##  4             76             76      1920             76      1920
##  5             73             73      1920             73      1920
##  6            107            107      1920            107      1920
##  7             90             90      1920             90      1920
##  8             77             77      1920             77      1920
##  9            145            145      1920            145      1920
## 10             90             90      1920             90      1920
## #  with 146 more rows, and 95 more variables: runtimeMinutes <dbl>,
## #   startYear <dbl>, runtimeMinutes <dbl>, runtimeMinutes <dbl>,
## #   runtimeMinutes <dbl>, runtimeMinutes <dbl>, startYear <dbl>,
## #   runtimeMinutes <dbl>, startYear <dbl>, runtimeMinutes <dbl>,
## #   runtimeMinutes <dbl>, runtimeMinutes <dbl>, runtimeMinutes <dbl>,
## #   startYear <dbl>, startYear <dbl>, startYear <dbl>, startYear <dbl>,
## #   runtimeMinutes <dbl>, startYear <dbl>, startYear <dbl>, startYear <dbl>,
## #   startYear <dbl>, runtimeMinutes <dbl>, startYear <dbl>, startYear <dbl>,
## #   runtimeMinutes <dbl>, runtimeMinutes <dbl>, runtimeMinutes <dbl>,
…
## #   runtimeMinutes <dbl>, startYear <dbl>, startYear <dbl>, startYear <dbl>,
## #   startYear <dbl>, runtimeMinutes <dbl>, runtimeMinutes <dbl>,
## #   startYear <dbl>, startYear <dbl>, runtimeMinutes <dbl>, startYear <dbl>,
## #   runtimeMinutes <dbl>, runtimeMinutes <dbl>, runtimeMinutes <dbl>,
## #   runtimeMinutes <dbl>, runtimeMinutes <dbl>, runtimeMinutes <dbl>,
## #   startYear <dbl>, startYear <dbl>, runtimeMinutes <dbl>, startYear <dbl>,
## #   startYear <dbl>, startYear <dbl>, startYear <dbl>, startYear <dbl>,
## #   startYear <dbl>, runtimeMinutes <dbl>, startYear <dbl>,
## #   runtimeMinutes <dbl>, startYear <dbl>, runtimeMinutes <dbl>,
## #   startYear <dbl>, startYear <dbl>, runtimeMinutes <dbl>, startYear <dbl>,
## #   runtimeMinutes <dbl>, runtimeMinutes <dbl>, runtimeMinutes <dbl>,
## #   startYear <dbl>, runtimeMinutes <dbl>, startYear <dbl>
## 
## [[2]]
## # A tibble: 156 x 100
##    runtimeMinutes runtimeMinutes runtimeMinutes runtimeMinutes startYear
##             <dbl>          <dbl>          <dbl>          <dbl>     <dbl>
##  1             76             76             76             76      1920
##  2            167            167            167            167      1920
##  3             82             82             82             82      1920
##  4             76             76             76             76      1920
##  5             73             73             73             73      1920
##  6            107            107            107            107      1920
##  7             90             90             90             90      1920
##  8             77             77             77             77      1920
##  9            145            145            145            145      1920
## 10             90             90             90             90      1920
## #  with 146 more rows, and 95 more variables: startYear <dbl>,
## #   runtimeMinutes <dbl>, runtimeMinutes <dbl>, startYear <dbl>,
## #   runtimeMinutes <dbl>, runtimeMinutes <dbl>, startYear <dbl>,
## #   runtimeMinutes <dbl>, runtimeMinutes <dbl>, runtimeMinutes <dbl>,
## #   runtimeMinutes <dbl>, startYear <dbl>, startYear <dbl>, startYear <dbl>,
## #   runtimeMinutes <dbl>, runtimeMinutes <dbl>, startYear <dbl>,
## #   runtimeMinutes <dbl>, runtimeMinutes <dbl>, runtimeMinutes <dbl>,
## #   runtimeMinutes <dbl>, runtimeMinutes <dbl>, runtimeMinutes <dbl>,
## #   startYear <dbl>, startYear <dbl>, runtimeMinutes <dbl>, startYear <dbl>,
…
## #   runtimeMinutes <dbl>, runtimeMinutes <dbl>, runtimeMinutes <dbl>,
## #   startYear <dbl>, runtimeMinutes <dbl>, runtimeMinutes <dbl>,
## #   startYear <dbl>, runtimeMinutes <dbl>, runtimeMinutes <dbl>,
## #   startYear <dbl>, startYear <dbl>, startYear <dbl>, runtimeMinutes <dbl>,
## #   runtimeMinutes <dbl>, startYear <dbl>, startYear <dbl>,
## #   runtimeMinutes <dbl>, startYear <dbl>, runtimeMinutes <dbl>,
## #   runtimeMinutes <dbl>, runtimeMinutes <dbl>, startYear <dbl>,
## #   runtimeMinutes <dbl>, runtimeMinutes <dbl>, startYear <dbl>,
## #   runtimeMinutes <dbl>, startYear <dbl>, startYear <dbl>, startYear <dbl>,
## #   startYear <dbl>, runtimeMinutes <dbl>, runtimeMinutes <dbl>,
## #   runtimeMinutes <dbl>, runtimeMinutes <dbl>, runtimeMinutes <dbl>,
## #   runtimeMinutes <dbl>
## 
## [[3]]
## # A tibble: 156 x 100
##    runtimeMinutes startYear startYear runtimeMinutes runtimeMinutes
##             <dbl>     <dbl>     <dbl>          <dbl>          <dbl>
##  1             76      1920      1920             76             76
##  2            167      1920      1920            167            167
##  3             82      1920      1920             82             82
##  4             76      1920      1920             76             76
##  5             73      1920      1920             73             73
##  6            107      1920      1920            107            107
##  7             90      1920      1920             90             90
##  8             77      1920      1920             77             77
##  9            145      1920      1920            145            145
## 10             90      1920      1920             90             90
## #  with 146 more rows, and 95 more variables: runtimeMinutes <dbl>,
## #   runtimeMinutes <dbl>, startYear <dbl>, startYear <dbl>, startYear <dbl>,
## #   startYear <dbl>, startYear <dbl>, runtimeMinutes <dbl>, startYear <dbl>,
## #   runtimeMinutes <dbl>, runtimeMinutes <dbl>, startYear <dbl>,
## #   startYear <dbl>, startYear <dbl>, startYear <dbl>, startYear <dbl>,
## #   startYear <dbl>, runtimeMinutes <dbl>, startYear <dbl>, startYear <dbl>,
## #   runtimeMinutes <dbl>, runtimeMinutes <dbl>, runtimeMinutes <dbl>,
## #   runtimeMinutes <dbl>, startYear <dbl>, startYear <dbl>,
## #   runtimeMinutes <dbl>, startYear <dbl>, runtimeMinutes <dbl>,
…
## #   startYear <dbl>, startYear <dbl>, startYear <dbl>, startYear <dbl>,
## #   runtimeMinutes <dbl>, startYear <dbl>, runtimeMinutes <dbl>,
## #   runtimeMinutes <dbl>, runtimeMinutes <dbl>, runtimeMinutes <dbl>,
## #   runtimeMinutes <dbl>, runtimeMinutes <dbl>, runtimeMinutes <dbl>,
## #   startYear <dbl>, startYear <dbl>, startYear <dbl>, runtimeMinutes <dbl>,
## #   startYear <dbl>, startYear <dbl>, startYear <dbl>, startYear <dbl>,
## #   runtimeMinutes <dbl>, runtimeMinutes <dbl>, runtimeMinutes <dbl>,
## #   runtimeMinutes <dbl>, runtimeMinutes <dbl>, startYear <dbl>,
## #   runtimeMinutes <dbl>, startYear <dbl>, startYear <dbl>,
## #   runtimeMinutes <dbl>, runtimeMinutes <dbl>, startYear <dbl>,
## #   startYear <dbl>, startYear <dbl>, runtimeMinutes <dbl>,
## #   runtimeMinutes <dbl>, runtimeMinutes <dbl>, startYear <dbl>
## 
## [[4]]
## # A tibble: 156 x 100
##    startYear startYear startYear runtimeMinutes runtimeMinutes runtimeMinutes
##        <dbl>     <dbl>     <dbl>          <dbl>          <dbl>          <dbl>
##  1      1920      1920      1920             76             76             76
##  2      1920      1920      1920            167            167            167
##  3      1920      1920      1920             82             82             82
##  4      1920      1920      1920             76             76             76
##  5      1920      1920      1920             73             73             73
##  6      1920      1920      1920            107            107            107
##  7      1920      1920      1920             90             90             90
##  8      1920      1920      1920             77             77             77
##  9      1920      1920      1920            145            145            145
## 10      1920      1920      1920             90             90             90
## #  with 146 more rows, and 94 more variables: runtimeMinutes <dbl>,
## #   startYear <dbl>, runtimeMinutes <dbl>, runtimeMinutes <dbl>,
## #   startYear <dbl>, runtimeMinutes <dbl>, startYear <dbl>, startYear <dbl>,
## #   startYear <dbl>, startYear <dbl>, startYear <dbl>, startYear <dbl>,
## #   startYear <dbl>, startYear <dbl>, startYear <dbl>, startYear <dbl>,
## #   startYear <dbl>, runtimeMinutes <dbl>, runtimeMinutes <dbl>,
## #   runtimeMinutes <dbl>, startYear <dbl>, runtimeMinutes <dbl>,
## #   runtimeMinutes <dbl>, startYear <dbl>, startYear <dbl>, startYear <dbl>,
## #   runtimeMinutes <dbl>, startYear <dbl>, startYear <dbl>, startYear <dbl>,
…
## #   startYear <dbl>, startYear <dbl>, runtimeMinutes <dbl>, startYear <dbl>,
## #   startYear <dbl>, startYear <dbl>, runtimeMinutes <dbl>, startYear <dbl>,
## #   runtimeMinutes <dbl>, startYear <dbl>, runtimeMinutes <dbl>,
## #   startYear <dbl>, runtimeMinutes <dbl>, startYear <dbl>,
## #   runtimeMinutes <dbl>, runtimeMinutes <dbl>, startYear <dbl>,
## #   runtimeMinutes <dbl>, startYear <dbl>, runtimeMinutes <dbl>,
## #   runtimeMinutes <dbl>, runtimeMinutes <dbl>, runtimeMinutes <dbl>,
## #   runtimeMinutes <dbl>, runtimeMinutes <dbl>, runtimeMinutes <dbl>,
## #   runtimeMinutes <dbl>, startYear <dbl>, startYear <dbl>,
## #   runtimeMinutes <dbl>, startYear <dbl>, runtimeMinutes <dbl>,
## #   runtimeMinutes <dbl>, startYear <dbl>, runtimeMinutes <dbl>,
## #   runtimeMinutes <dbl>, runtimeMinutes <dbl>
## 
## [[5]]
## # A tibble: 156 x 100
##    startYear startYear runtimeMinutes startYear runtimeMinutes startYear
##        <dbl>     <dbl>          <dbl>     <dbl>          <dbl>     <dbl>
##  1      1920      1920             76      1920             76      1920
##  2      1920      1920            167      1920            167      1920
##  3      1920      1920             82      1920             82      1920
##  4      1920      1920             76      1920             76      1920
##  5      1920      1920             73      1920             73      1920
##  6      1920      1920            107      1920            107      1920
##  7      1920      1920             90      1920             90      1920
##  8      1920      1920             77      1920             77      1920
##  9      1920      1920            145      1920            145      1920
## 10      1920      1920             90      1920             90      1920
## #  with 146 more rows, and 94 more variables: runtimeMinutes <dbl>,
## #   runtimeMinutes <dbl>, startYear <dbl>, startYear <dbl>,
## #   runtimeMinutes <dbl>, runtimeMinutes <dbl>, runtimeMinutes <dbl>,
## #   startYear <dbl>, runtimeMinutes <dbl>, startYear <dbl>, startYear <dbl>,
## #   startYear <dbl>, runtimeMinutes <dbl>, startYear <dbl>, startYear <dbl>,
## #   startYear <dbl>, runtimeMinutes <dbl>, runtimeMinutes <dbl>,
## #   runtimeMinutes <dbl>, startYear <dbl>, runtimeMinutes <dbl>,
## #   runtimeMinutes <dbl>, startYear <dbl>, startYear <dbl>,
## #   runtimeMinutes <dbl>, runtimeMinutes <dbl>, runtimeMinutes <dbl>,
…
## #   runtimeMinutes <dbl>, runtimeMinutes <dbl>, runtimeMinutes <dbl>,
## #   runtimeMinutes <dbl>, runtimeMinutes <dbl>, startYear <dbl>,
## #   startYear <dbl>, startYear <dbl>, runtimeMinutes <dbl>, startYear <dbl>,
## #   startYear <dbl>, runtimeMinutes <dbl>, runtimeMinutes <dbl>,
## #   runtimeMinutes <dbl>, startYear <dbl>, runtimeMinutes <dbl>,
## #   runtimeMinutes <dbl>, runtimeMinutes <dbl>, runtimeMinutes <dbl>,
## #   startYear <dbl>, startYear <dbl>, startYear <dbl>, runtimeMinutes <dbl>,
## #   startYear <dbl>, startYear <dbl>, startYear <dbl>, runtimeMinutes <dbl>,
## #   startYear <dbl>, startYear <dbl>, runtimeMinutes <dbl>,
## #   runtimeMinutes <dbl>, startYear <dbl>, runtimeMinutes <dbl>,
## #   runtimeMinutes <dbl>, startYear <dbl>, startYear <dbl>,
## #   runtimeMinutes <dbl>
## 
## [[6]]
## # A tibble: 156 x 100
##    runtimeMinutes startYear startYear startYear startYear runtimeMinutes
##             <dbl>     <dbl>     <dbl>     <dbl>     <dbl>          <dbl>
##  1             76      1920      1920      1920      1920             76
##  2            167      1920      1920      1920      1920            167
##  3             82      1920      1920      1920      1920             82
##  4             76      1920      1920      1920      1920             76
##  5             73      1920      1920      1920      1920             73
##  6            107      1920      1920      1920      1920            107
##  7             90      1920      1920      1920      1920             90
##  8             77      1920      1920      1920      1920             77
##  9            145      1920      1920      1920      1920            145
## 10             90      1920      1920      1920      1920             90
## #  with 146 more rows, and 94 more variables: startYear <dbl>,
## #   runtimeMinutes <dbl>, runtimeMinutes <dbl>, startYear <dbl>,
## #   runtimeMinutes <dbl>, runtimeMinutes <dbl>, runtimeMinutes <dbl>,
## #   runtimeMinutes <dbl>, startYear <dbl>, runtimeMinutes <dbl>,
## #   startYear <dbl>, startYear <dbl>, runtimeMinutes <dbl>,
## #   runtimeMinutes <dbl>, startYear <dbl>, startYear <dbl>,
## #   runtimeMinutes <dbl>, runtimeMinutes <dbl>, runtimeMinutes <dbl>,
## #   runtimeMinutes <dbl>, startYear <dbl>, runtimeMinutes <dbl>,
## #   startYear <dbl>, runtimeMinutes <dbl>, startYear <dbl>, startYear <dbl>,
…
